g1,g2,g3,g4,numéro,génération,sexe,anniversaire,prénom,nom,naissance,déces,mariage,prénom conjoint,nom conjoint,naissance conjoint,décès conjoint
4,0,0,0,4000,1,m,01/01,Maxence,Beaulau,01/01/1929,01/01/2010,01/01/1957,Henri,Zife,01/01/1929,
4,1,0,0,4100,2,m,01/01,Michel,Beaulau,01/01/1957,,,Chaïma,Chase,,
4,1,0,0,4100,2,m,01/01,Michel,Beaulau,01/01/1957,,,?,,,
4,1,1,0,4110,3,f,01/01,Jeanne,Beaulau,01/01/1988,,,Guillaume,Mohi,01/01/1978,
4,1,1,1,4111,4,f,01/01,Eray,Mohi,01/01/2020,,,,,,
4,2,0,0,4200,2,m,01/01,Josue,Beaulau,01/01/1954,,01/01/1981,Sophie,Connu,01/01/1964,
4,2,1,0,4210,3,m,01/01,Julie,Beaulau,01/01/1987,,01/01/2011,Théo,Rullan,,
4,2,1,1,4211,4,m,01/01,Elodie,Beaulau,01/01/2017,,,,,,
4,2,1,2,4212,4,m,01/01,Carole,Beaulau,01/01/2021,,,,,,
4,2,2,0,4220,3,m,01/01,Mia,Beaulau,01/01/1980,,01/01/2007,Paulette,Chojopa,,
4,2,2,1,4221,4,m,01/01,Albert,Beaulau,01/01/2012,,,,,,
4,2,2,2,4222,4,f,01/01,Maurice,Beaulau,01/01/2015,,,,,,
4,2,2,3,4223,4,m,01/01,Keyssia,Beaulau,01/01/2023,,,,,,
4,2,3,0,4230,3,m,01/01,Quentin,Beaulau,01/01/1990,,01/01/2016,Etienne,Codideau,,
4,2,3,1,4231,4,m,01/01,André,Beaulau,01/01/2021,,,,,,
4,2,3,2,4232,4,m,01/01,Henri,Beaulau,01/01/2016,,,,,,
4,2,3,3,4233,4,m,01/01,Marc,Beaulau,01/01/2016,,,,,,
4,2,4,0,4240,3,m,01/01,Dominique,Beaulau,01/01/1988,,01/01/2016,Léa,Tullau,,
4,2,4,1,4241,4,f,01/01,Antoinette,Beaulau,01/01/2023,,,,,,
4,2,5,0,4250,3,m,01/01,Severine,Beaulau,01/01/1997,,,,,,
4,2,6,0,4260,3,f,01/01,Aline,Beaulau,01/01/1998,,,,,,
4,2,6,1,4261,4,f,01/01,Noah,Beaulau,01/01/2018,,,,,,
4,2,7,0,4270,3,f,01/01,Jocelyne,Beaulau,01/01/1996,,,Brigitte,Gronzo,,
4,2,7,1,4271,4,m,01/01,Jacques,Gronzo-Beaulau,01/01/2017,,,,,,
4,3,0,0,4300,2,f,01/01,Taymiyya,Beaulau,01/01/1960,,01/01/1979,Auguste,Prebocin,01/01/1960,
4,3,1,0,4310,3,f,01/01,Martin,Prebocin,01/01/1980,,01/01/2009,Emile,Totro,,
4,3,1,1,4311,4,m,01/01,Mireille,Totro,01/01/2013,,,,,,
4,3,1,2,4312,4,f,01/01,Tahar,Totro,01/01/2018,,,,,,
4,3,1,3,4313,4,f,01/01,Michael,Totro,01/01/2017,,,,,,
4,3,2,0,4320,3,m,01/01,Roland,Prebocin,01/01/1982,,,?,,,
4,3,2,1,4321,4,f,01/01,Philippe,Naudile-Prebocin,01/01/2014,,,,,,
4,3,3,0,4330,3,f,01/01,Floris,Prebocin,01/01/1992,,,,,,
4,3,4,0,4340,3,f,01/01,Philippe,Prebocin,01/01/1994,,01/01/2020,Cedric,Rannarru,,
4,4,0,0,4400,2,m,01/01,Robert,Beaulau,01/01/1958,,01/01/1979,Clémence,Meaunnou,01/01/1960,
4,4,1,0,4410,3,f,01/01,Cindy,Beaulau,01/01/1985,,01/01/2008,Audrey,Doprainhi,01/01/1980,
4,4,1,1,4411,4,m,01/01,Béatrice,Doprainhi,01/01/2002,,,,,,
4,4,1,2,4412,4,m,01/01,Amélie,Doprainhi,01/01/2003,,,,,,
4,4,1,3,4413,4,m,01/01,Jean-Marie,Doprainhi,01/01/2015,,,,,,
4,4,1,4,4414,4,f,01/01,Claire,Doprainhi,01/01/2020,,,,,,
4,4,2,0,4420,3,f,01/01,Sabrina,Beaulau,01/01/1985,,,,,,
4,4,3,0,4430,3,m,01/01,Monique,Beaulau,01/01/1991,,01/01/2009,Mehdi,Trynna,,
4,4,3,1,4431,4,f,01/01,Didier,Beaulau,01/01/2010,,,,,,
4,4,3,2,4432,4,m,01/01,Antoine,Beaulau,01/01/2014,,,,,,
4,4,3,3,4433,4,m,01/01,Julien,Beaulau,01/01/2018,,,,,,
4,4,3,4,4434,4,m,01/01,Maurice,Beaulau,01/01/2023,,,,,,
4,4,4,0,4440,3,m,01/01,Pascal,Beaulau,01/01/1985,,01/01/2016,Nathalie,Mincanzin,01/01/1992,
4,4,4,1,4441,4,m,01/01,Jeannine,Beaulau,01/01/2016,,,,,,
4,4,4,2,4442,4,m,01/01,Sophie,Beaulau,01/01/2016,,,,,,
4,4,4,3,4443,4,F,01/01,Bernard,Beaulau,01/01/2023,,,,,,
4,4,5,0,4450,3,f,01/01,Ethan,Beaulau,01/01/1993,,01/01/2020,Jean-Marc,Tipauste,01/01/1990,
4,4,5,1,4451,4,f,01/01,Henri,Tipauste,01/01/2017,,,,,,
4,4,6,0,4460,3,m,01/01,Antoine,Beaulau,01/01/1990,,01/01/2018,Manon,Lalle,,
4,4,6,1,4461,4,m,01/01,Christine,Beaulau,01/01/2021,,,,,,
4,4,6,2,4462,4,m,01/01,Germaine,Beaulau,01/01/2024,,,,,,
4,4,7,0,4470,3,m,01/01,Adam,Beaulau,01/01/1993,,01/01/2020,Marie,Quinffa,01/01/1990,
4,4,7,1,4471,4,f,01/01,Louis,Beaulau,01/01/2022,,,,,,
4,4,7,2,4472,4,f,01/01,Jean,Beaulau,01/01/2023,,,,,,
4,4,0,0,4400,2,m,01/01,Robert,Beaulau,01/01/1957,,01/01/2015,Chloé,Prouga,,
4,5,0,0,4500,2,m,01/01,Camille,Beaulau,01/01/1964,,01/01/1994,Jessy,Dainpriban,01/01/1963,
4,5,1,0,4510,3,m,01/01,Christophe,Beaulau,01/01/1993,,01/01/2023,Béatrice,Seppu,01/01/1995,
4,5,1,1,4511,4,f,01/01,Imen,Beaulau,01/01/2021,,,,,,
4,5,2,0,4520,3,f,01/01,Malonn,Beaulau,01/01/1991,,01/01/2017,Philippe,Stoppoin,01/01/1994,
4,5,2,1,4521,4,m,01/01,Jean,Stoppoin,01/01/2018,,,,,,
4,5,2,2,4522,4,f,01/01,Françoise,Stoppoin,01/01/2020,,,,,,
4,5,3,0,4530,3,f,01/01,Philippe,Beaulau,01/01/1999,,01/01/2023,Yvonne,Dibru,01/01/1995,
4,5,4,0,4540,3,m,01/01,Victoria,Beaulau,01/01/1996,,,,,,
4,5,5,0,4550,3,f,01/01,Huguette,Beaulau,01/01/1998,,,,,,
4,5,6,0,4560,3,m,01/01,Corentin,Beaulau,01/01/2008,,,,,,
